Archived Course Notes for 431, version 2023 - 4 NHANES Data
…
library(NHANES)
library(naniar)
library(kableExtra)
library(tidyverse)

theme_set(theme_bw())

4.2 The NHANES data: A First Sample

The NHANES package provides a sample of 10,000 NHANES responses from the 2009-10 and 2011-12 administrations, in a tibble also called NHANES. We can obtain the dimensions of this tibble with the dim() function.

NHANES

# A tibble: 10,000 × 76
      ID SurveyYr Gender   Age AgeDecade AgeMonths Race1 Race3 Education   
   <int> <fct>    <fct>  <int> <fct>         <int> <fct> <fct> <fct>       
 1 51624 2009_10  male      34 " 30-39"        409 White <NA>  High School 
 2 51624 2009_10  male      34 " 30-39"        409 White <NA>  High School 
 3 51624 2009_10  male      34 " 30-39"        409 White <NA>  High School 
 4 51625 2009_10  male       4 " 0-9"           49 Other <NA>  <NA>        
 5 51630 2009_10  female    49 " 40-49"        596 White <NA>  Some College
 6 51638 2009_10  male       9 " 0-9"          115 White <NA>  <NA>        
 7 51646 2009_10  male       8 " 0-9"          101 White <NA>  <NA>        
 8 51647 2009_10  female    45 " 40-49"        541 White <NA>  College Grad
 9 51647 2009_10  female    45 " 40-49"        541 White <NA>  College Grad
10 51647 2009_10  female    45 " 40-49"        541 White <NA>  College Grad
# ℹ 9,990 more rows
# ℹ 67 more variables: MaritalStatus <fct>, HHIncome <fct>, HHIncomeMid <int>,
#   Poverty <dbl>, HomeRooms <int>, HomeOwn <fct>, Work <fct>, Weight <dbl>,
#   Length <dbl>, HeadCirc <dbl>, Height <dbl>, BMI <dbl>,
#   BMICatUnder20yrs <fct>, BMI_WHO <fct>, Pulse <int>, BPSysAve <int>,
#   BPDiaAve <int>, BPSys1 <int>, BPDia1 <int>, BPSys2 <int>, BPDia2 <int>,
#   BPSys3 <int>, BPDia3 <int>, Testosterone <dbl>, DirectChol <dbl>, …
…
nh_temp <- NHANES |>
    filter(SurveyYr == "2011_12") |>
    filter(Age >= 21 & Age < 65) |>
    rename(Sex = Gender, Race = Race3, SBP = BPSysAve, DBP = BPDiaAve) |>
    select(ID, Sex, Age, Height, Weight, Race, Education, BMI, SBP, DBP, 
           Pulse, PhysActive, Smoke100, SleepTrouble, 
           MaritalStatus, HealthGen) |>
   distinct()

The resulting nh_temp tibble has 1700 rows and 16 columns.

nh_temp

# A tibble: 1,700 × 16
      ID Sex      Age Height Weight Race     Education     BMI   SBP   DBP Pulse
   <int> <fct>  <int>  <dbl>  <dbl> <fct>    <fct>       <dbl> <int> <int> <int>
 1 62172 female    43   172    98.6 Black    High School  33.3   103    72    80
 2 62176 female    34   172.   68.7 White    College Gr…  23.3   107    69    92
 3 62180 male      35   179.   89   White    College Gr…  27.9   107    66    66
 4 62199 male      57   186    96.9 White    College Gr…  28     110    65    84
 5 62205 male      28   171.   84.8 White    College Gr…  28.9   122    87    70
 6 62206 female    35   167.   81.5 White    Some Colle…  29.1   106    50    58
 7 62208 male      38   169.   63.2 Hispanic Some Colle…  22.2   105    59    52
 8 62209 female    62   143.   53.5 Mexican  8th Grade    26     108    57    72
 9 62220 female    31   167.  113.  Black    College Gr…  40.4   120    71    62
10 62222 male      32   179    80.1 White    College Gr…  25     104    73    78
# ℹ 1,690 more rows
# ℹ 5 more variables: PhysActive <fct>, Smoke100 <fct>, SleepTrouble <fct>,
#   MaritalStatus <fct>, HealthGen <fct>
…
Setting a seed is an important part of being able to replicate the work later when sampling is involved. If you and I use the same seed, we should get the same sample.

Then we will use the slice_sample() function to actually draw the random sample, without replacement.

“Without replacement” means that once we’ve selected a particular subject, we won’t select them again.

set.seed(431002) 
# use set.seed to ensure that we all get the same random sample 

nh_adult750 <- slice_sample(nh_temp, n = 750, replace = F) 

nh_adult750

# A tibble: 750 × 16
      ID Sex      Age Height Weight Race     Education     BMI   SBP   DBP Pulse
   <int> <fct>  <int>  <dbl>  <dbl> <fct>    <fct>       <dbl> <int> <int> <int>
 1 68648 female    30   181.   67.1 White    College Gr…  20.4   103    59    78
 2 67200 male      30   180.   86.6 White    College Gr…  26.7   113    68    70
 3 66404 female    35   160.   71.1 White    College Gr…  27.8   116    80    68
 4 70535 male      40   177.   82   White    College Gr…  26.3   130    79    68
 5 65308 female    54   151.   60.6 Mexican  8th Grade    26.6   130    64    48
 6 67392 male      41   171.   90.7 Hispanic College Gr…  31.2   124    82    68
 7 63218 male      35   163.   81   Mexican  8th Grade    30.3   128    96    82
 8 65879 female    32   160.   66.4 Mexican  College Gr…  25.9   104    70    78
 9 63617 male      29   189.   83.3 White    College Gr…  23.2   105    72    76
10 64720 male      29   174.   62.3 Black    College Gr…  20.6   127    60    84
# ℹ 740 more rows
# ℹ 5 more variables: PhysActive <fct>, Smoke100 <fct>, SleepTrouble <fct>,
#   MaritalStatus <fct>, HealthGen <fct>
…
Now we see that 636 observations, or 84.8% of all cases have no missing data.

We can use miss_case_summary() to identify cases with missing data, as well.

miss_case_summary(nh_adult750)

# A tibble: 750 × 3
    case n_miss pct_miss
   <int>  <int>    <dbl>
 1   342      7     43.8
 2   606      6     37.5
 3   157      4     25  
 4   169      4     25  
 5   204      4     25  
 6   234      4     25  
 7   323      4     25  
 8   415      4     25  
 9   478      4     25  
10   483      4     25  
# ℹ 740 more rows
…
# A tibble: 1 × 3
  n_miss_in_var n_vars pct_vars
          <int>  <int>    <dbl>
1             0     16      100

OK. Now, let’s create a second sample, called nh_adult500cc, where now, we will select 500 adults with complete data on all of the variables of interest, and using a different random seed. The cc here stands for complete cases.

set.seed(431003) 
# use set.seed to ensure that we all get the same random sample 

nh_adult500cc <- slice_sample(nh_temp2, n = 500, replace = F) 

nh_adult500cc

# A tibble: 500 × 16
      ID Sex      Age Height Weight Race     Education     BMI   SBP   DBP Pulse
   <int> <fct>  <int>  <dbl>  <dbl> <fct>    <fct>       <dbl> <int> <int> <int>
 1 64079 female    25   159.   86.2 Hispanic Some Colle…  34.2   120    67    84
 2 64374 female    52   169    65.5 Asian    College Gr…  22.9    92    58    60
 3 71875 male      42   182.   94.1 Black    College Gr…  28.5   102    63    76
 4 66396 female    46   161.  107.  Asian    8th Grade    41.2   111    61    70
 5 64315 female    52   161.   64.5 White    9 - 11th G…  24.9   130    69    68
 6 64015 male      32   168.   82.3 Mexican  Some Colle…  29     119    79    70
 7 63590 male      21   181.   98.3 Black    Some Colle…  29.9   121    67    58
 8 70893 female    30   171.   65.7 White    9 - 11th G…  22.5   104    75    74
 9 70828 male      26   178.  100.  White    Some Colle…  31.5   119    77    66
10 67930 male      59   172.   91.7 Mexican  College Gr…  31     127    85    66
# ℹ 490 more rows
# ℹ 5 more variables: PhysActive <fct>, Smoke100 <fct>, SleepTrouble <fct>,
#   MaritalStatus <fct>, HealthGen <fct>
…
