Archived Course Notes for 431, version 2023 - 10 National Youth Fitness Survey
…
Now, I’ll take a look at the nnyfs data, which I’ve made available in a comma-separated version (nnyfs.csv), if you prefer, as well as in an R data set (nnyfs.Rds) which loads a bit faster. After loading the file, let’s get a handle on its size and contents. In my R Project for these notes, the data are contained in a separate data subdirectory.

nnyfs <- readRDS("data/nnyfs.Rds")

## size of the tibble
dim(nnyfs)

[1] 1518   45

There are 1518 rows (subjects) and 45 columns (variables), by which I mean that there are 1518 kids in the nnyfs data frame, and we have 45 pieces of information on each subject. So, what do we have, exactly?

nnyfs 

# A tibble: 1,518 × 45
    SEQN sex    age_child race_eth    educ_child language sampling_wt income_pov
   <dbl> <fct>      <dbl> <fct>            <dbl> <fct>          <dbl>      <dbl>
 1 71917 Female        15 3_Black No…          9 English       28299.       0.21
 2 71918 Female         8 3_Black No…          2 English       15127.       5   
 3 71919 Female        14 2_White No…          8 English       29977.       5   
 4 71920 Female        15 2_White No…          8 English       80652.       0.87
 5 71921 Male           3 2_White No…         NA English       55592.       4.34
 6 71922 Male          12 1_Hispanic           6 English       27365.       5   
 7 71923 Male          12 2_White No…          5 English       86673.       5   
 8 71924 Female         8 4_Other Ra…          2 English       39549.       2.74
 9 71925 Male           7 1_Hispanic           0 English       42333.       0.46
10 71926 Male           8 3_Black No…          2 English       15307.       1.57
# ℹ 1,508 more rows
# ℹ 37 more variables: age_adult <dbl>, educ_adult <fct>, respondent <fct>,
#   salt_used <fct>, energy <dbl>, protein <dbl>, sugar <dbl>, fat <dbl>,
#   diet_yesterday <fct>, water <dbl>, plank_time <dbl>, height <dbl>,
#   weight <dbl>, bmi <dbl>, bmi_cat <fct>, arm_length <dbl>, waist <dbl>,
#   arm_circ <dbl>, calf_circ <dbl>, calf_skinfold <dbl>,
#   triceps_skinfold <dbl>, subscapular_skinfold <dbl>, active_days <dbl>, …
…
