Archived Course Notes for 431, version 2023 - 15 Studying Crab Claws
…
This was part of a study of the effects that predatory intertidal crab species have on populations of snails. The three crab species under study are:

14 Hemigraspus nudus, also called the purple shore crab (14 crabs)

12 Lophopanopeus bellus, also called the black-clawed pebble crab, and

12 Cancer productus, one of several species of red rock crabs (12)

crabs <- read_csv("data/crabs.csv", show_col_types = FALSE) 

crabs

# A tibble: 38 × 4
    crab species              force height
   <dbl> <chr>                <dbl>  <dbl>
 1     1 Hemigraspus nudus      4      8  
 2     2 Lophopanopeus bellus  15.1    7.9
 3     3 Cancer productus       5      6.7
 4     4 Lophopanopeus bellus   2.9    6.6
 5     5 Hemigraspus nudus      3.2    5  
 6     6 Hemigraspus nudus      9.5    7.9
 7     7 Cancer productus      22.5    9.4
 8     8 Hemigraspus nudus      7.4    8.3
 9     9 Cancer productus      14.6   11.2
10    10 Lophopanopeus bellus   8.7    8.6
# ℹ 28 more rows
…
We’d interpret this result as saying, for the first new crab, that the log-log model’s predicted force associated with a single new crab claw with propodus height 10 mm is 12.4 Newtons, and that a 95% prediction interval for the true value of such a force for such a claw is between 3.1 and 50.0 Newtons.

15.7.2 Comparing Model Predictions

Suppose we wish to build a plot of force vs height with a straight line for the linear model’s predictions, and a new curve for the log-log model’s predictions, so that we can compare and contrast the implications of the two models on a common scale. The predict function, when not given a new data frame, will use the existing predictor values that are in our crabs data. Such predictions are often called fitted values.

To put the two sets of predictions on the same scale despite the differing outcomes in the two models, we’ll exponentiate the results of the log-log model, and build a little data frame containing the heights and the predicted forces from that model.

loglogdat <- tibble(height = crabs$height, force = exp(predict(crab_loglog)))

A cleaner way to do this might be to use the augment function directly from broom:

augment(crab_loglog)

# A tibble: 38 × 8
   `log(force)` `log(height)` .fitted   .resid   .hat .sigma  .cooksd .std.resid
          <dbl>         <dbl>   <dbl>    <dbl>  <dbl>  <dbl>    <dbl>      <dbl>
 1         1.39          2.08   2.01  -6.26e-1 0.0280  0.676 1.28e- 2  -0.941   
 2         2.71          2.07   1.98   7.31e-1 0.0287  0.673 1.79e- 2   1.10    
 3         1.61          1.90   1.61  -1.15e-4 0.0499  0.684 8.06e-10  -0.000175
 4         1.06          1.89   1.58  -5.11e-1 0.0530  0.679 1.69e- 2  -0.778   
 5         1.16          1.61   0.945  2.18e-1 0.142   0.683 1.01e- 2   0.349   
 6         2.25          2.07   1.98   2.68e-1 0.0287  0.683 2.39e- 3   0.402   
 7         3.11          2.24   2.38   7.35e-1 0.0301  0.673 1.90e- 2   1.11    
 8         2.00          2.12   2.10  -9.44e-2 0.0266  0.684 2.75e- 4  -0.142   
 9         2.68          2.42   2.78  -9.55e-2 0.0561  0.684 6.30e- 4  -0.146   
10         2.16          2.15   2.18  -1.32e-2 0.0263  0.684 5.34e- 6  -0.0199  
# ℹ 28 more rows
…
