Archived Course Notes for 431, version 2023 - 17 The WCGS
…
Vittinghoff et al. (2012) explore data from the Western Collaborative Group Study (WCGS) in some detail1. We’ll touch lightly on some key issues in this Chapter.

The Western Collaborative Group Study (WCGS) was designed to test the hypothesis that the so-called Type A behavior pattern (TABP) - “characterized particularly by excessive drive, aggressiveness, and ambition, frequently in association with a relatively greater preoccupation with competitive activity, vocational deadlines, and similar pressures” - is a cause of coronary heart disease (CHD). Two additional goals, developed later in the study, were (1) to investigate the comparability of formulas developed in WCGS and in the Framingham Study (FS) for prediction of CHD risk, and (2) to determine how addition of TABP to an existing multivariate prediction formula affects ability to select subjects for intervention programs.

The study enrolled over 3,000 men ages 39-59 who were employed in San Francisco or Los Angeles, during 1960 and 1961.

In the code chunk below, after importing the data and creating a tibble with read_csv, I used mutate(across(where(is.character), as_factor) to convert all variables containing character data into factors.

wcgs <- read_csv("data/wcgs.csv") |>
    mutate(across(where(is.character), as_factor))

wcgs

# A tibble: 3,154 × 22
      id   age agec  height weight lnwght wghtcat   bmi   sbp lnsbp   dbp  chol
   <dbl> <dbl> <fct>  <dbl>  <dbl>  <dbl> <fct>   <dbl> <dbl> <dbl> <dbl> <dbl>
 1  2343    50 46-50     67    200   5.30 170-200  31.3   132  4.88    90   249
 2  3656    51 51-55     73    192   5.26 170-200  25.3   120  4.79    74   194
 3  3526    59 56-60     70    200   5.30 170-200  28.7   158  5.06    94   258
 4 22057    51 51-55     69    150   5.01 140-170  22.1   126  4.84    80   173
 5 12927    44 41-45     71    160   5.08 140-170  22.3   126  4.84    80   214
 6 16029    47 46-50     64    158   5.06 140-170  27.1   116  4.75    76   206
 7  3894    40 35-40     70    162   5.09 140-170  23.2   122  4.80    78   190
 8 11389    41 41-45     70    160   5.08 140-170  23.0   130  4.87    84   212
 9 12681    50 46-50     71    195   5.27 170-200  27.2   112  4.72    70   130
10 10005    43 41-45     68    187   5.23 170-200  28.4   120  4.79    80   233
# ℹ 3,144 more rows
# ℹ 10 more variables: behpat <fct>, dibpat <fct>, smoke <fct>, ncigs <dbl>,
#   arcus <dbl>, chd69 <fct>, typchd69 <dbl>, time169 <dbl>, t1 <dbl>,
#   uni <dbl>
…
