Archived Course Notes for 431, version 2023 - 21 Comparing Means with Paired Samples
…
21.3 The Lead in the Blood of Children Study

Morton et al. (1982) studied the absorption of lead into the blood of children. This was a matched-sample study, where the exposed group of interest contained 33 children of parents who worked in a battery manufacturing factory (where lead was used) in the state of Oklahoma. Specifically, each child with a lead-exposed parent was matched to another child of the same age, exposure to traffic, and living in the same neighborhood whose parents did not work in lead-related industries. So the complete study had 66 children, arranged in 33 matched pairs. The outcome of interest, gathered from a sample of whole blood from each of the children, was lead content, measured in mg/dl.

One motivation for doing this study is captured in the Abstract from Morton et al. (1982).

It has been repeatedly reported that children of employees in a lead-related industry are at increased risk of lead absorption because of the high levels of lead found in the household dust of these workers.

The data are available in several places, including Table 5 of Pruzek and Helmreich (2009), in the BloodLead data set within the PairedData package in R, but we also make them available in the bloodlead.csv file. A table of the first few pairs of observations (blood lead levels for one child exposed to lead and the matched control) is shown below.

bloodlead <- read_csv("data/bloodlead.csv", show_col_types = FALSE)

bloodlead

# A tibble: 33 × 3
   pair  exposed control
   <chr>   <dbl>   <dbl>
 1 P01        38      16
 2 P02        23      18
 3 P03        41      18
 4 P04        18      24
 5 P05        37      19
 6 P06        36      11
 7 P07        23      10
 8 P08        62      15
 9 P09        31      16
10 P10        34      18
# ℹ 23 more rows
…
We’ll begin by adjusting the data in two ways.

We’d like that first variable (pair) to be a factor rather than a character type in R, because we want to be able to summarize it more effectively. So we’ll make that change.

Also, we’d like to calculate the difference in lead content between the exposed and the control children in each pair, and we’ll save that within-pair difference in a variable called lead_diff. We’ll take lead_diff = exposed - control so that positive values indicate increased lead in the exposed child.

bloodlead_original <- bloodlead

bloodlead <- bloodlead_original |>
    mutate(pair = factor(pair),
           lead_diff = exposed - control)

bloodlead

# A tibble: 33 × 4
   pair  exposed control lead_diff
   <fct>   <dbl>   <dbl>     <dbl>
 1 P01        38      16        22
 2 P02        23      18         5
 3 P03        41      18        23
 4 P04        18      24        -6
 5 P05        37      19        18
 6 P06        36      11        25
 7 P07        23      10        13
 8 P08        62      15        47
 9 P09        31      16        15
10 P10        34      18        16
# ℹ 23 more rows
…
And what we want to accomplish is to have one row for each subject, instead of one row for each pair of subjects. So we want to make the data longer.

bloodlead_longer <- bloodlead_original |>
    pivot_longer(
        cols = -c(pair),
        names_to = "status",
        values_to = "lead_level")

bloodlead_longer

# A tibble: 66 × 3
   pair  status  lead_level
   <chr> <chr>        <dbl>
 1 P01   exposed         38
 2 P01   control         16
 3 P02   exposed         23
 4 P02   control         18
 5 P03   exposed         41
 6 P03   control         18
 7 P04   exposed         18
 8 P04   control         24
 9 P05   exposed         37
10 P05   control         19
# ℹ 56 more rows
…
