Archived Course Notes for 431, version 2023 - 24 Analysis of Variance
…
theme_set(theme_bw())

24.2 National Youth Fitness Survey

Recall the National Youth Fitness Survey, which we explored a small piece of in Chapter 10. We’ll look at a different part of the same survey here - specifically the 280 children whose data are captured in the nyfs2 file.

nyfs2 <- read_csv("data/nyfs2.csv", show_col_types = FALSE) |>
  clean_names()

nyfs2

# A tibble: 280 × 21
   subject_id sex    age_exam race_eth         english income_cat3 income_detail
        <dbl> <chr>     <dbl> <chr>              <dbl> <chr>       <chr>        
 1      73228 Male          4 5 Other or Mult…       1 Low (below… 0 to 4999    
 2      72393 Male          4 2 Non-Hispanic …       1 Low (below… 0 to 4999    
 3      73303 Male          3 2 Non-Hispanic …       1 Low (below… 0 to 4999    
 4      72786 Male          5 1 Non-Hispanic …       1 Low (below… 0 to 4999    
 5      73048 Male          3 2 Non-Hispanic …       1 Low (below… 0 to 4999    
 6      72556 Female        4 2 Non-Hispanic …       1 Low (below… 0 to 4999    
 7      72580 Female        5 2 Non-Hispanic …       1 Low (below… 0 to 4999    
 8      72532 Female        4 4 Other Hispanic       0 Low (below… 0 to 4999    
 9      73012 Male          4 1 Non-Hispanic …       1 Low (below… 0 to 4999    
10      72099 Male          6 1 Non-Hispanic …       1 Low (below… 0 to 4999    
# ℹ 270 more rows
# ℹ 14 more variables: inc_to_pov <dbl>, weight_kg <dbl>, height_cm <dbl>,
#   bmi <dbl>, bmi_group <dbl>, bmi_cat <chr>, arm_length <dbl>,
#   arm_circ <dbl>, waist_circ <dbl>, calf_circ <dbl>, calf_skinfold <dbl>,
#   triceps_skinfold <dbl>, subscap_skinfold <dbl>, gmq <dbl>
…
