Archived Course Notes for 431, version 2023 - 28 Larger Contingency Tables
…
whickham2 <- tibble(smoking, status, age, counts) |>
    mutate(smoking = factor(smoking),
           status = factor(status),
           age = factor(age))

whickham2

# A tibble: 28 × 4
   smoking    status age   counts
   <fct>      <fct>  <fct>  <dbl>
 1 Smoker     Alive  18-24     53
 2 Smoker     Dead   18-24      2
 3 Non-Smoker Alive  18-24     61
 4 Non-Smoker Dead   18-24      1
 5 Smoker     Alive  25-34    121
 6 Smoker     Dead   25-34      3
 7 Non-Smoker Alive  25-34    152
 8 Non-Smoker Dead   25-34      5
 9 Smoker     Alive  35-44     95
10 Smoker     Dead   35-44     14
# ℹ 18 more rows
…
