Archived Course Notes for 431, version 2023 - 35 BMI and Employment Study
…
We will eventually build a model to predict bmi using all of the other variables besides pid. So we’ll eventually have to account for the 9 people with missing values (one of whom has two missing values, as we see above.) What I’m going to do in this example is to first build a complete-case analysis on the 990 subjects without missing values and then, later, do multiple imputation to account for the 9 subjects with missing values (and their 10 actual missing values) sensibly.

I’ll put the “complete cases” data set of 990 subjects in emp_bmi_noNA.

emp_bmi_noNA <- emp_bmi |> na.omit()
emp_bmi_noNA

# A tibble: 990 × 8
     pid   bmi   age gender employed married alcohol                   education
   <dbl> <dbl> <dbl> <chr>     <dbl>   <dbl> <chr>                     <chr>    
 1    22  20.8    58 male          1       1 heavy drinker             4 colleg…
 2    41  21.4    76 female        0       1 normal drinker or non-dr… 1 elem s…
 3    52  20.9    66 female        1       1 heavy drinker             1 elem s…
 4    82  23.7    67 male          1       1 alcohol dependent         2 middle…
 5   112  25.5    63 female        0       1 heavy drinker             1 elem s…
 6   181  20.5    51 female        1       1 heavy drinker             3 high s…
 7   182  25.3    51 male          1       1 alcohol dependent         3 high s…
 8   411  20.8    66 female        1       1 normal drinker or non-dr… 2 middle…
 9   491  20.8    64 female        0       1 normal drinker or non-dr… 3 high s…
10   531  24.3    84 female        0       0 normal drinker or non-dr… 1 elem s…
# ℹ 980 more rows
…
